<?xml version="1.0" encoding="utf-8"?>
<!-- Generator: Adobe Illustrator 21.1.0, SVG Export Plug-In . SVG Version: 6.00 Build 0)  -->
<svg version="1.1" id="Layer_1" xmlns="http://www.w3.org/2000/svg" xmlns:xlink="http://www.w3.org/1999/xlink" x="0px" y="0px"
	 viewBox="0 0 640 480" style="enable-background:new 0 0 640 480;" xml:space="preserve">
<style type="text/css">
	.st0{fill:#47B6E4;}
</style>
<g>
	<path class="st0" d="M319.4,126C256.2,126,205,177.2,205,240.4c0,63.2,51.2,114.4,114.4,114.4c63.2,0,114.4-51.2,114.4-114.4
		C433.8,177.2,382.6,126,319.4,126L319.4,126z M319.4,333.4c-51.3,0-93-41.6-93-93c0-51.3,41.6-93,93-93s93,41.6,93,93
		C412.4,291.8,370.8,333.4,319.4,333.4L319.4,333.4z M339.7,240.4l20.2-20.2c2.8-2.8,2.8-7.3,0-10.1l-10.1-10.1
		c-2.8-2.8-7.3-2.8-10.1,0l-20.2,20.2l-20.2-20.2c-2.8-2.8-7.3-2.8-10.1,0L279,210c-2.8,2.8-2.8,7.3,0,10.1l20.2,20.2L279,260.5
		c-2.8,2.8-2.8,7.3,0,10.1l10.1,10.1c2.8,2.8,7.3,2.8,10.1,0l20.2-20.2l20.3,20.3c2.8,2.8,7.3,2.8,10.1,0l10.1-10.1
		c2.8-2.8,2.8-7.3,0-10.1L339.7,240.4z M339.7,240.4"/>
</g>
</svg>
